inventory_id,jurisdiction,production_years,jurisdiction_name_en,jurisdiction_name_fr,description,use_in_cfs_casfri,standard_type,permission,redistribution_within_casfri,redistribution_original_data,license_agreement_url_en,license_agreement_url_fr,license_notes,dataset,dataset_location,dataset_notes,acquisition_links,acquisition_date,acquisition_person,contact_info,comment
,AB,,Government of Alberta,Gouvernement de l'Alberta,"Foothills, FMU C5",NO,AVIE,RESTRICTED,REQUIRES_AGREEMENT,REQUIRES_AGREEMENT,,,,avie_casfri.gdb.zip,\\vic-fas1\nfidwarfs\nfi\OperationalDelivery\Collaborations\Projects\CASFRI\Data\AB\RestrictedData,,,2020-10-09,Kristian Arndt,"Beverly Wilson RPF, 780-422-5229, Bev.Wilson@gov.ab.ca",
,AB,,Government of Alberta,Gouvernement de l'Alberta,"Boreal, FMU S10",NO,AVIE,RESTRICTED,REQUIRES_AGREEMENT,REQUIRES_AGREEMENT,,,,avie_casfri.gdb.zip,\\vic-fas1\nfidwarfs\nfi\OperationalDelivery\Collaborations\Projects\CASFRI\Data\AB\RestrictedData,,,2020-10-09,Kristian Arndt,"Beverly Wilson RPF, 780-422-5229, Bev.Wilson@gov.ab.ca",
BC08,BC,2016,Government of British Columbia,Gouvernement de la Colombie-Britannique,,YES,VRI,UNRESTRICTED,OPEN_WITH_ACKNOWLEDGEMENT,OPEN_WITH_ACKNOWLEDGEMENT,https://www2.gov.bc.ca/gov/content/data/open-data/open-government-licence-bc,,,"VEG_COMP_LYR_L1_POLY_2016.gdb.zip, VEG_COMP_LYR_L2_POLY_2016.gdb.zip",\\vic-fas1\nfidwarfs\nfi\OperationalDelivery\Collaborations\Projects\CASFRI\Data\BC\BC08,Default “unzip” utility in Linux does not work.  Use Windows or jar xvf [zip file],https://catalogue.data.gov.bc.ca/dataset/vri-historical-vegetation-resource-inventory-2002-2019-,2020-05-08,Kristian Arndt,"Edward Fong, 778-974-2641, Edward.Fong@gov.bc.ca ",
BC10,BC,2018,Government of British Columbia,Gouvernement de la Colombie-Britannique,,YES,VRI,UNRESTRICTED,OPEN_WITH_ACKNOWLEDGEMENT,OPEN_WITH_ACKNOWLEDGEMENT,https://www2.gov.bc.ca/gov/content/data/open-data/open-government-licence-bc,,,"VEG_COMP_LYR_L1_POLY_2018.gdb.zip, VEG_COMP_LYR_L2_POLY_2018.gdb.zip",\\vic-fas1\nfidwarfs\nfi\OperationalDelivery\Collaborations\Projects\CASFRI\Data\BC\BC10,Default “unzip” utility in Linux does not work.  Use Windows or jar xvf [zip file],https://catalogue.data.gov.bc.ca/dataset/vri-historical-vegetation-resource-inventory-2002-2019-,2020-05-11,Kristian Arndt,,
,MB,,Government of Manitoba,Gouvernement du Manitoba,,NO,,UNRESTRICTED,OPEN_WITH_ACKNOWLEDGEMENT,OPEN_WITH_ACKNOWLEDGEMENT,https://mli2.gov.mb.ca/disclaimer/mli_disclaimer2.doc,,,*_shp.zip,\\vic-fas1\nfidwarfs\nfi\OperationalDelivery\Collaborations\Projects\CASFRI\Data\MB\Data,Not all *_shp.zip files were downloaded as it was time consuming and we do not have translations for them.  Additional data can be downloaded at the acquisition_links.  A geodatabase can possibly be provided by the contacts.,https://mli2.gov.mb.ca/forestry/index.html,2020-02-04,Sishir Gautam,"Tony Viveiros, GIS Database Manager, 204-806-5848; James Boyd, james.boyd2@gov.mb.ca",No translations available for this data.
,NB,,Government of New Brunswick,Gouvernement du Nouveau Brunswick,,NO,,,,,http://geonb.snb.ca/documents/license/geonb-odl_en.pdf,http://geonb.snb.ca/documents/license/geonb-odl_fr.pdf,,NB_Landbase_Oct1_2019.gdb,\\vic-fas1\nfidwarfs\nfi\OperationalDelivery\Collaborations\Projects\CASFRI\Data\NB,Acquired via USB drive from Dale via Graham.,,2019-10-01,Graham Stinson,"Dale Wilson, Dale.A.Wilson@gnb.ca",This is not used in CASFRI yet as the format is different and no conversion/translations are available.
NB02,NB,,Government of New Brunswick,Gouvernement du Nouveau Brunswick,,YES,,UNRESTRICTED,OPEN_WITH_ACKNOWLEDGEMENT,OPEN_WITH_ACKNOWLEDGEMENT,http://geonb.snb.ca/documents/license/geonb-odl_en.pdf,http://geonb.snb.ca/documents/license/geonb-odl_fr.pdf,,"geonb_forest-foret_shp.zip, geonb_nbhn-rhnb_shp.zip, geonb_nonforest-nonforet_shp.zip",\\vic-fas1\nfidwarfs\nfi\OperationalDelivery\Collaborations\Projects\CASFRI\Data\NB,"These files do not match exactly the naming expected by NB02 delivered by Ulaval team.  However, once renamed (or conversion script updated), the data is the same).",http://www.snb.ca/geonb1/e/DC/catalogue-E.asp,2020-06-05,Kristian Arndt,"Dale Wilson, Dale.A.Wilson@gnb.ca",
NS03,NS,,Government of Nova Scotia,Gouvernement de la Nouvelle-Écosse,,YES,NSI01,UNRESTRICTED,OPEN_WITH_ACKNOWLEDGEMENT,OPEN_WITH_ACKNOWLEDGEMENT,https://novascotia.ca/natr/forestry/gis/licence.asp,,,NS03.zip,\\vic-fas1\nfidwarfs\nfi\OperationalDelivery\Collaborations\Projects\CASFRI\Data\NS,Each county was downloaded individually and compiled manually into NS03.zip,https://novascotia.ca/natr/forestry/gis/dl_forestry.asp,2020-05-11,Kristian Arndt,,
ON02,ON,2019,Government of Ontario,Gouvernement de l'Ontario,,YES,FIM02,RESTRICTED,OPEN_WITH_ACKNOWLEDGEMENT,REQUIRES_AGREEMENT,https://www.ontario.ca/page/open-government-licence-ontario,https://www.ontario.ca/fr/page/licence-du-gouvernement-ouvert-ontario,PENDING: Data only open when part of consolidated CASFRI project.  No permission to disseminate data in its original format.,INV2019.gdb.zip,\\vic-fas1\nfidwarfs\nfi\OperationalDelivery\Collaborations\Projects\CASFRI\Data\ON,"While the data attributes/tables are the same as ULaval’s conversion script, the features are named differently.  See the custom conversion script in the cfs_casfri project for loading into the database.  Existing translations for ON02 can then be used.",,2019-10-01,Kristian Arndt,"Data contact: Larry Watkins, 705-943-8727, larry.watkins@ontario.ca; Data agreement contact: Tracy Sallaway, 705-313-3546, Tracy.Sallaway@ontario.ca ",
PE01,PE,1990,Government of Prince Edward Island,Gouvernement de l'Île-du-Prince-Édouard,,YES,FI,UNRESTRICTED,OPEN_WITH_ACKNOWLEDGEMENT,OPEN_WITH_ACKNOWLEDGEMENT,https://www.princeedwardisland.ca/en/information/finance/open-government-licence-prince-edward-island,https://www.princeedwardisland.ca/fr/information/finances/licence-du-gouvernement-ouvert-ile-du-prince-edouard,,Forest_90.SHP.zip,\\vic-fas1\nfidwarfs\nfi\OperationalDelivery\Collaborations\Projects\CASFRI\Data\PEI\1990,,https://data.princeedwardisland.ca/Environment-and-Food/OD0081-1990-Forest-Inventory/j3cr-p6vz,2019-09-04,Kristian Arndt,"Andrew Ing, 902-368-4713, aring@gov.pe.ca",
,PE,2000,Government of Prince Edward Island,Gouvernement de l'Île-du-Prince-Édouard,,NO,,UNRESTRICTED,OPEN_WITH_ACKNOWLEDGEMENT,OPEN_WITH_ACKNOWLEDGEMENT,https://www.princeedwardisland.ca/en/information/finance/open-government-licence-prince-edward-island,https://www.princeedwardisland.ca/fr/information/finances/licence-du-gouvernement-ouvert-ile-du-prince-edouard,Recently released as Open Data,CL2000.SHP.zip,\\vic-fas1\nfidwarfs\nfi\OperationalDelivery\Collaborations\Projects\CASFRI\Data\PEI\2000,,https://data.princeedwardisland.ca/Environment-and-Food/OD0143-Corporate-Landuse-Inventory-2000/xeii-j79s,2021-03-11,Kristian Arndt,"Andrew Ing, 902-368-4713, aring@gov.pe.ca",
,PE,2010,Government of Prince Edward Island,Gouvernement de l'Île-du-Prince-Édouard,,NO,,UNRESTRICTED,OPEN_WITH_ACKNOWLEDGEMENT,OPEN_WITH_ACKNOWLEDGEMENT,https://www.princeedwardisland.ca/en/information/finance/open-government-licence-prince-edward-island,https://www.princeedwardisland.ca/fr/information/finances/licence-du-gouvernement-ouvert-ile-du-prince-edouard,Recently released as Open Data,CorporateLanduseInventory2010.SHP.zip,\\vic-fas1\nfidwarfs\nfi\OperationalDelivery\Collaborations\Projects\CASFRI\Data\PEI\2010,,https://data.princeedwardisland.ca/Environment-and-Food/OD0144-Corporate-Landuse-Inventory-2010/tc7z-7rpy,2021-03-11,Kristian Arndt,"Andrew Ing, 902-368-4713, aring@gov.pe.ca",
QC03,QC,2009,Government of Quebec,Gouvernement du Québec,,YES,INI03,UNRESTRICTED,OPEN_WITH_ACKNOWLEDGEMENT,OPEN_WITH_ACKNOWLEDGEMENT,,https://mffp.gouv.qc.ca/le-ministere/acces-aux-donnees-gratuites/#_Licences_d%E2%80%99utilisation,,CARTE_ECO_MAJ_PROV_10.zip,\\vic-fas1\nfidwarfs\nfi\OperationalDelivery\Collaborations\Projects\CASFRI\Data\QC,The same file was split into 3 different inventories.  See notes in readme.md,ftp://transfert.mffp.gouv.qc.ca/Public/Diffusion/DonneeGratuite/Foret/DONNEES_FOR_ECO_SUD/Cartes_ecoforestieres_perturbations/CARTE_ECO_MAJ_PROV_10.zip,2021-02-01,Kristian Arndt,"Antoine Leboeuf, Antoine.Leboeuf@mffp.gouv.qc.ca",
QC04,QC,2013,Government of Quebec,Gouvernement du Québec,,YES,INI04,UNRESTRICTED,OPEN_WITH_ACKNOWLEDGEMENT,OPEN_WITH_ACKNOWLEDGEMENT,,https://mffp.gouv.qc.ca/le-ministere/acces-aux-donnees-gratuites/#_Licences_d%E2%80%99utilisation,,CARTE_ECO_MAJ_PROV_10.zip,\\vic-fas1\nfidwarfs\nfi\OperationalDelivery\Collaborations\Projects\CASFRI\Data\QC,The same file was split into 3 different inventories.  See notes in readme.md,ftp://transfert.mffp.gouv.qc.ca/Public/Diffusion/DonneeGratuite/Foret/DONNEES_FOR_ECO_SUD/Cartes_ecoforestieres_perturbations/CARTE_ECO_MAJ_PROV_10.zip,2021-02-01,Kristian Arndt,"Antoine Leboeuf, Antoine.Leboeuf@mffp.gouv.qc.ca",
QC05,QC,2017,Government of Quebec,Gouvernement du Québec,,YES,IPF05,UNRESTRICTED,OPEN_WITH_ACKNOWLEDGEMENT,OPEN_WITH_ACKNOWLEDGEMENT,,https://mffp.gouv.qc.ca/le-ministere/acces-aux-donnees-gratuites/#_Licences_d%E2%80%99utilisation,,CARTE_ECO_MAJ_PROV_10.zip,\\vic-fas1\nfidwarfs\nfi\OperationalDelivery\Collaborations\Projects\CASFRI\Data\QC,The same file was split into 3 different inventories.  See notes in readme.md,ftp://transfert.mffp.gouv.qc.ca/Public/Diffusion/DonneeGratuite/Foret/DONNEES_FOR_ECO_SUD/Cartes_ecoforestieres_perturbations/CARTE_ECO_MAJ_PROV_10.zip,2021-02-01,Kristian Arndt,"Antoine Leboeuf, Antoine.Leboeuf@mffp.gouv.qc.ca",
YT03,YT,,Government of Yukon,Gouvernement du Yukon,,YES,YVI01,UNRESTRICTED,OPEN_WITH_ACKNOWLEDGEMENT,OPEN_WITH_ACKNOWLEDGEMENT,https://open.yukon.ca/open-government-licence-yukon,,,Vegetation_Inventory_5k.fgdb.zip,\\vic-fas1\nfidwarfs\nfi\OperationalDelivery\Collaborations\Projects\CASFRI\Data\YT,,ftp://ftp.geomaticsyukon.ca/GeoYukon/Forestry/Vegetation_Inventory_5k/,2020-05-11,Kristian Arndt,"Robin Sharples, Robin.Sharples@yukon.ca ",
